<svg xmlns="http://www.w3.org/2000/svg" width="567" height="235" fill="none" viewBox="0 0 567 235">
  <g class="Navbar_1">
    <path fill="#F4F5F7" d="M0 0h567v235H0z"/>
    <g class="Group 4">
      <path fill="#C4C4C4" d="M0 0h567v40H0z" class="Rectangle 15"/>
    </g>
    <path fill="#C4C4C4" d="M71 49h84v108H71z" class="Rectangle 28"/>
    <path fill="#C4C4C4" d="M112.5 40l9.959 14.25h-19.918L112.5 40z" class="Polygon 4"/>
    <g class="Group 12">
      <path fill="#949494" d="M71 13h84v14H71z" class="Rectangle 29"/>
      <path fill="#949494" d="M185 13h84v14h-84z" class="Rectangle 30"/>
      <path fill="#949494" d="M299 13h84v14h-84z" class="Rectangle 31"/>
      <path fill="#949494" d="M413 13h84v14h-84z" class="Rectangle 32"/>
    </g>
  </g>
</svg>
