<svg xmlns="http://www.w3.org/2000/svg" width="24" height="24" fill="currentColor" viewBox="0 0 24 24">
  <path d="M19 3H5c-1.103 0-2 .897-2 2v3.5a.5.5 0 00.5.5h17a.5.5 0 00.5-.5V5c0-1.103-.897-2-2-2zM3 19c0 1.103.897 2 2 2h7.5a.5.5 0 00.5-.5v-9a.5.5 0 00-.5-.5h-9a.5.5 0 00-.5.5V19zm12 1.5a.5.5 0 00.5.5H19c1.103 0 2-.897 2-2v-7.5a.5.5 0 00-.5-.5h-5a.5.5 0 00-.5.5v9z"/>
</svg>
