<svg xmlns="http://www.w3.org/2000/svg" width="24" height="24" fill="currentColor" viewBox="0 0 24 24">
  <path fill-rule="evenodd" d="M19 1.5a.5.5 0 00-.5-.5h-5a.5.5 0 00-.5.5v8a.5.5 0 01-.5.5h-8a.5.5 0 00-.5.5v10a.5.5 0 00.5.5h14a.5.5 0 00.5-.5v-19zm-15 7a.5.5 0 00.5.5h7a.5.5 0 00.5-.5v-7a.5.5 0 00-.5-.5h-.337a.25.25 0 00-.177.073L4.073 7.986A.25.25 0 004 8.162V8.5zM20.5 3a.5.5 0 01.5.5v19a.5.5 0 01-.5.5h-14a.5.5 0 01-.5-.5V22a.5.5 0 01.5-.5H19a.5.5 0 00.5-.5V3.5A.5.5 0 0120 3h.5zm-6.095 11.153l1.5.494c.805.264 1.307 1.251 1.008 2.214a1.587 1.587 0 01-1.469 1.136v.753c0 .137-.1.25-.222.25h-.444c-.123 0-.223-.113-.223-.25V18a1.831 1.831 0 01-1.201-.469.274.274 0 01-.025-.383l.483-.53a.199.199 0 01.271-.032.783.783 0 00.475.164h.921c.227 0 .41-.206.41-.46a.46.46 0 00-.294-.443l-1.424-.469a1.739 1.739 0 01-1.165-1.51c-.082-1.013.63-1.868 1.515-1.868h.034v-.75c0-.137.1-.25.223-.25h.444c.122 0 .223.113.223.25V12a1.83 1.83 0 011.201.469c.11.095.124.275.025.383l-.483.53a.199.199 0 01-.271.032.783.783 0 00-.475-.164h-.921c-.227 0-.41.206-.41.46 0 .204.12.387.294.443z" clip-rule="evenodd"/>
</svg>
